Exploring the BRFSS data
…
## # A tibble: 3 x 2
##   addepev2  count
##   <fct>     <int>
## 1 Yes       95779
## 2 No       393707
## 3 <NA>       2289

We summarize the values present in the column that consists of number of children in the household(children).

brfss2013 %>% group_by(children) %>% summarise(count = n())

## `summarise()` ungrouping output (override with `.groups` argument)

## # A tibble: 21 x 2
##    children  count
##       <int>  <int>
##  1        0 359478
##  2        1  53208
##  3        2  46682
##  4        3  19828
##  5        4   6924
##  6        5   2099
##  7        6    827
##  8        7    240
##  9        8    103
## 10        9     45
## #  with 11 more rows
…
